# Blender v2.81 (sub 16) OBJ File: ''
# www.blender.org
o Icosphere.005_Icosphere.020
v -0.454358 3.657953 0.882966
v -1.579309 5.139199 1.111008
v -1.759509 4.936116 -0.752912
v -0.754828 6.077903 -1.894042
v 0.993034 5.008600 -1.055230
v 0.100007 5.529655 1.700586
v -1.532357 9.100654 0.761583
v -1.609586 9.086122 -1.207226
v 0.127032 8.798311 -2.014575
v 1.158958 9.228222 0.453721
v 0.180517 8.359720 1.511375
v 0.421970 10.711163 -0.429198
v -1.310782 3.680106 0.067800
v -0.433703 3.620947 -0.752054
v 0.585417 3.756189 -0.073284
v 1.281573 5.798364 0.847847
v -0.869623 7.235135 1.709411
v -1.812953 7.270538 1.134421
v -2.220514 7.153901 -0.016834
v -1.946742 6.888089 -1.213754
v 0.379205 6.780922 -2.015836
v 1.212733 7.189035 -1.489262
v 1.674766 7.161000 -0.361304
v 1.197474 9.287359 -1.005178
v -0.522140 10.617280 0.081902
v -0.207754 10.566057 -1.219365
v -1.032629 3.496935 0.474376
v -1.542981 4.080775 -0.319370
v -1.053744 4.161450 1.139377
v -1.847697 4.936287 0.156432
v -0.132286 4.480091 1.420506
v -0.699638 5.146311 1.572409
v -0.485107 3.307623 0.068970
v -0.556223 4.612526 -1.402432
v -1.336141 5.287250 -1.422246
v 0.864757 4.137515 -0.503205
v 0.148515 3.567919 0.384639
v 0.132447 5.260302 -1.614682
v 0.724862 5.567919 1.441168
v 1.345450 5.219014 -0.102066
v 0.322909 6.812372 1.746952
v -1.177150 6.173455 1.589686
v -0.352055 7.811855 1.738601
v -1.784757 6.358584 1.196769
v -1.767598 8.148622 1.017323
v -2.024194 8.309945 0.322394
v -2.115994 5.963950 -0.362239
v -1.901660 7.811355 -1.279430
v -1.924011 6.001848 -1.085546
v -1.256196 7.688519 -1.753597
v 0.250204 7.685119 -2.141071
v -0.068082 6.491118 -2.069316
v 1.218214 6.095849 -1.324232
v 0.789672 8.076969 -1.840283
v 1.503249 6.003801 -0.635263
v 1.587536 8.132901 0.107817
v 1.380388 7.639211 0.789205
v -0.720000 9.042240 1.247643
v -1.733524 9.329851 -0.199087
v -0.774689 9.052339 -1.796526
v 0.750540 9.192707 -1.615315
v 1.330887 9.349646 -0.261207
v 0.740791 8.879084 1.064063
v -0.185886 9.736156 0.900974
v 0.003742 10.900538 -0.199812
v -1.098790 10.002019 0.427957
v -0.899366 10.110305 -1.306889
v 0.119807 10.846615 -0.811940
v -0.075846 9.886189 -1.684823
v 0.771945 10.261728 -0.024621
v -1.516200 4.145495 0.533574
v -1.147958 4.137366 -0.918518
v -0.982260 3.476885 -0.330129
v 0.175769 3.470394 -0.412124
v 0.295660 4.121108 -1.029763
v 0.476425 4.461650 1.006337
v 0.957965 4.438119 0.333767
v -0.331510 6.373045 1.818958
v -2.046892 6.060458 0.548358
v -2.075485 7.228179 0.699394
v -1.535276 6.555801 -1.591317
v 0.635510 5.924827 -1.704691
v 0.792700 6.940363 -1.837978
v 1.621991 6.552083 0.221064
v -1.437641 7.292665 1.463847
v -1.173113 8.297803 1.399485
v -2.176878 7.060914 -0.746764
v -2.089359 8.227044 -0.598507
v -0.401584 7.628517 -2.104685
v 1.583779 8.228427 -0.649752
v 1.546869 7.055216 -0.963920
v 1.316777 8.177475 -1.302692
v 0.904367 7.170757 1.357600
v -1.201153 10.188446 -0.554371
v -0.515107 10.839587 -0.676757
v 0.824604 10.224051 -0.678131
v 0.511109 10.145965 -1.239129
v 0.349320 10.176355 0.425646
v -1.683048 4.352037 0.124810
v -1.256022 3.872644 0.773585
v -0.659732 4.504755 1.426042
v -1.034069 4.631002 -1.295323
v -1.242472 3.814108 -0.578683
v -0.833797 3.326892 0.070976
v 0.485872 3.802063 -0.703809
v -0.018969 4.614872 -1.380373
v -0.087559 3.329259 0.017623
v 0.410440 4.756927 1.330402
v 0.545341 4.110298 0.626356
v 1.130632 4.574755 -0.096303
v -0.727132 5.850490 1.700404
v -0.068981 7.015140 1.838774
v -2.035016 5.624465 0.126365
v -2.018676 6.498935 0.838633
v -2.005235 7.957461 0.690431
v -1.613449 5.897165 -1.423848
v -1.591638 7.379622 -1.590824
v 0.919490 6.233745 -1.638643
v 0.614651 7.639173 -1.991339
v 0.222300 5.839209 -1.830351
v 1.591431 7.438290 0.421116
v 1.535019 5.864176 -0.154447
v -1.478676 8.000989 1.325292
v -0.749968 8.445280 1.508300
v -1.489648 6.559249 1.468026
v -2.116216 7.779427 -0.893106
v -1.997129 8.655535 -0.173789
v -2.130224 6.316019 -0.738842
v -0.097696 7.297605 -2.179347
v -0.826239 8.124608 -1.923995
v 1.550833 8.620707 -0.258421
v 1.541319 7.816435 -0.978608
v 0.991987 8.503545 -1.617690
v 1.463913 6.297653 -0.990701
v 1.060978 7.914237 1.124515
v 0.721765 6.497202 1.556025
v -0.691566 9.690669 0.904111
v -0.923107 10.447678 -0.872468
v -0.170828 11.009311 -0.563389
v -1.400292 9.939440 -0.126775
v -0.631569 9.774511 -1.653404
v 1.034427 9.987118 -0.304813
v 0.501690 10.471729 -0.945451
v 0.432795 9.811167 -1.556756
v 0.322086 9.682192 0.835543
v 0.368991 10.543675 0.094744
v -0.403757 0.004942 -0.232935
v 0.011949 0.004941 -0.478442
v 0.432418 0.004942 -0.241184
v 0.437180 0.004942 0.241582
v 0.021474 0.004942 0.487089
v -0.398995 0.004942 0.249831
v -0.217171 4.215567 -0.127650
v 0.014062 4.215567 -0.264212
v 0.247945 4.215567 -0.132238
v 0.250594 4.215566 0.136297
v 0.019361 4.215567 0.272859
v -0.214522 4.215567 0.140885
v 0.016711 0.004942 0.004323
v 0.016711 4.215567 0.004323
v -0.143752 2.110254 -0.456402
v -0.464296 2.110254 -0.267095
v 0.180464 2.110254 -0.273456
v 0.184136 2.110254 0.098797
v -0.136408 2.110254 0.288103
v -0.460624 2.110254 0.105157
vt 0.061815 0.748888
vt 0.023729 0.751920
vt 0.045559 0.712245
vt 0.083001 0.764943
vt 0.040676 0.764664
vt 0.007593 0.794898
vt 0.036357 0.792045
vt 0.790656 0.086381
vt 0.806851 0.051210
vt 0.824478 0.095859
vt 0.740788 0.052147
vt 0.786088 0.059030
vt 0.783003 0.009438
vt 0.762208 0.039685
vt 0.658419 0.046491
vt 0.674733 0.087020
vt 0.623024 0.080408
vt 0.718328 0.034966
vt 0.695243 0.000000
vt 0.685078 0.056975
vt 0.096741 0.844704
vt 0.043922 0.842308
vt 0.124256 0.899097
vt 0.066908 0.863358
vt 0.061890 0.898028
vt 0.007594 0.892909
vt 0.001899 0.843099
vt 0.026366 0.825712
vt 0.785803 0.139372
vt 0.829798 0.144993
vt 0.817265 0.195134
vt 0.802224 0.122310
vt 0.735737 0.209658
vt 0.769040 0.233750
vt 0.735202 0.242782
vt 0.783317 0.239193
vt 0.776319 0.204424
vt 0.731792 0.260706
vt 0.082709 0.943337
vt 0.024888 0.938455
vt 0.054830 0.970366
vt 0.056258 0.928271
vt 0.769899 0.166644
vt 0.736611 0.158715
vt 0.619683 0.139126
vt 0.674360 0.145443
vt 0.615754 0.206012
vt 0.654994 0.126432
vt 0.696563 0.171413
vt 0.686013 0.210306
vt 0.695399 0.238668
vt 0.670500 0.246510
vt 0.905754 0.465147
vt 0.854149 0.469144
vt 0.871748 0.440068
vt 0.827368 0.479936
vt 0.868395 0.493525
vt 0.828382 0.538457
vt 0.843699 0.430714
vt 0.886910 0.405831
vt 0.936436 0.416519
vt 0.894060 0.419953
vt 0.924230 0.432607
vt 0.913255 0.622752
vt 0.859183 0.608161
vt 0.871216 0.590015
vt 0.832499 0.593507
vt 0.874604 0.639497
vt 0.836757 0.645209
vt 0.885016 0.575232
vt 0.910955 0.546668
vt 0.878000 0.545304
vt 0.911538 0.582246
vt 0.973217 0.531541
vt 0.937239 0.574364
vt 0.942182 0.544168
vt 0.950643 0.586381
vt 0.121056 0.825842
vt 0.154195 0.792896
vt 0.122703 0.790416
vt 0.144744 0.835791
vt 0.180474 0.857611
vt 0.184357 0.796643
vt 0.218713 0.811568
vt 0.172120 0.830171
vt 0.426692 0.690519
vt 0.482244 0.695177
vt 0.453926 0.703509
vt 0.505752 0.710027
vt 0.484236 0.683683
vt 0.528356 0.701582
vt 0.477071 0.730433
vt 0.549516 0.773810
vt 0.523643 0.728748
vt 0.546777 0.733510
vt 0.513177 0.748344
vt 0.142419 0.979646
vt 0.104782 0.958355
vt 0.134211 0.949857
vt 0.096768 0.981814
vt 0.349673 0.839296
vt 0.389708 0.829223
vt 0.383956 0.898807
vt 0.330381 0.782996
vt 0.364986 0.817822
vt 0.401090 0.775347
vt 0.364725 0.779881
vt 0.377975 0.743385
vt 0.405529 0.728562
vt 0.372028 0.728645
vt 0.935782 0.513502
vt 0.945333 0.489776
vt 0.910099 0.508510
vt 0.949194 0.460001
vt 0.968080 0.466285
vt 0.883955 0.514507
vt 0.179567 0.766991
vt 0.189557 0.758799
vt 0.154591 0.759307
vt 0.149877 0.737187
vt 0.494647 0.588764
vt 0.500357 0.643204
vt 0.440088 0.638000
vt 0.559685 0.587164
vt 0.551057 0.525593
vt 0.561636 0.644379
vt 0.519325 0.606364
vt 0.112797 0.750353
vt 0.129372 0.763522
vt 0.163812 0.949660
vt 0.182552 0.969635
vt 0.175424 0.924171
vt 0.211772 0.939589
vt 0.225518 0.880186
vt 0.193529 0.888992
vt 0.476511 0.822345
vt 0.418119 0.829990
vt 0.434431 0.799582
vt 0.431842 0.856510
vt 0.448837 0.771658
vt 0.476415 0.771368
vt 0.437230 0.746694
vt 0.514475 0.795789
vt 0.501888 0.770983
vt 0.430537 0.722161
vt 0.307114 0.836865
vt 0.339280 0.893324
vt 0.294653 0.888608
vt 0.331717 0.857047
vt 0.580840 0.152694
vt 0.590007 0.093367
vt 0.558418 0.093752
vt 0.594567 0.132095
vt 0.401964 0.547386
vt 0.388122 0.601162
vt 0.363525 0.580959
vt 0.423160 0.592195
vt 0.383286 0.624954
vt 0.338186 0.601108
vt 0.472019 0.542526
vt 0.495992 0.485580
vt 0.435065 0.500951
vt 0.451834 0.443137
vt 0.470082 0.511078
vt 0.374758 0.475994
vt 0.410576 0.490928
vt 0.384361 0.507124
vt 0.415326 0.460527
vt 0.464514 0.575447
vt 0.505544 0.454332
vt 0.531302 0.456764
vt 0.480680 0.416376
vt 0.504869 0.383580
vt 0.428434 0.904254
vt 0.474660 0.869404
vt 0.471263 0.902558
vt 0.445678 0.877224
vt 0.513167 0.842660
vt 0.536903 0.857471
vt 0.500454 0.866497
vt 0.509685 0.886846
vt 0.547986 0.817524
vt 0.526096 0.819064
vt 0.348433 0.538703
vt 0.340034 0.562129
vt 0.312751 0.528594
vt 0.313336 0.566037
vt 0.336670 0.498039
vt 0.355864 0.515311
vt 0.147327 0.171385
vt 0.000000 0.085692
vt 0.147327 0.000000
vt 0.671872 0.398301
vt 0.625134 0.359431
vt 0.719750 0.360866
vt 0.294653 0.085692
vt 0.577256 0.396867
vt 0.294653 0.257077
vt 0.623994 0.435737
vt 0.147327 0.342770
vt 0.718610 0.437172
vt 0.000000 0.257077
vt 0.766489 0.399736
vt 0.253230 0.379406
vt 0.122388 0.543141
vt 0.083544 0.367194
vt 0.253230 0.552558
vt 0.097713 0.701046
vt 0.057969 0.524308
vt 0.000000 0.342770
vt 0.936088 0.816748
vt 0.766489 0.645209
vt 0.936088 0.658578
vt 0.872855 0.985275
vt 0.805313 0.806439
vt 0.635328 0.577064
vt 0.751356 0.772111
vt 0.581257 0.769531
vt 0.766489 0.579053
vt 0.520456 0.185680
vt 0.459732 0.000000
vt 0.558417 0.044630
vt 0.503524 0.334606
vt 0.444362 0.151266
vt 0.411700 0.357637
vt 0.317072 0.183193
vt 0.192099 0.707838
vt 0.051242 0.687460
vt 0.778516 0.977839
vt 0.558417 0.359431
vt 0.294653 0.041405
vn -0.9206 -0.2383 0.3095
vn -0.9596 -0.2654 -0.0930
vn -0.8738 -0.4859 0.0212
vn -0.7638 -0.5928 0.2555
vn -0.2765 -0.6939 0.6648
vn -0.6784 -0.3458 0.6482
vn -0.0350 -0.2504 0.9675
vn -0.4520 -0.2178 0.8650
vn -0.1147 -0.5558 0.8233
vn -0.6746 -0.3860 -0.6292
vn -0.3035 -0.3137 -0.8997
vn -0.2131 -0.5541 -0.8047
vn -0.3321 -0.6725 -0.6614
vn -0.6895 -0.6913 -0.2161
vn -0.7775 -0.4296 -0.4592
vn -0.0303 -0.9332 -0.3580
vn -0.0242 -0.9179 0.3960
vn -0.5947 -0.8027 0.0452
vn 0.7007 -0.6950 -0.1612
vn 0.2130 -0.6930 -0.6888
vn 0.5257 -0.4341 -0.7316
vn 0.0062 -0.3173 -0.9483
vn 0.4311 -0.3625 -0.8263
vn 0.0615 -0.5515 -0.8319
vn 0.5402 -0.8397 0.0552
vn 0.1813 -0.9058 0.3830
vn 0.0048 -0.9344 -0.3563
vn 0.7433 -0.3826 0.5488
vn 0.3833 -0.2693 0.8835
vn 0.4349 -0.6059 0.6661
vn 0.4454 -0.6156 0.6501
vn 0.6651 -0.6502 0.3672
vn 0.7445 -0.3836 0.5464
vn 0.9135 -0.3051 -0.2691
vn 0.9155 -0.3133 0.2526
vn 0.8239 -0.5443 0.1578
vn -0.2481 -0.0318 0.9682
vn -0.4512 -0.2243 0.8638
vn -0.0704 -0.1811 0.9809
vn 0.1500 -0.0617 0.9868
vn 0.3077 0.1708 0.9360
vn -0.1158 0.0537 0.9918
vn -0.9898 -0.1118 0.0877
vn -0.9511 -0.2948 -0.0922
vn -0.9102 -0.2706 0.3134
vn -0.8922 -0.2080 0.4009
vn -0.8351 0.0118 0.5500
vn -0.9778 -0.0502 0.2032
vn -0.8453 0.3232 0.4255
vn -0.9762 0.1112 0.1861
vn -0.8566 0.0888 0.5083
vn -0.7125 -0.3256 -0.6215
vn -0.7492 -0.1136 -0.6526
vn -0.4528 -0.1873 -0.8717
vn -0.5612 0.1744 -0.8091
vn -0.3817 -0.0383 -0.9235
vn -0.6958 -0.0472 -0.7167
vn 0.6191 -0.3071 -0.7228
vn 0.4474 -0.1841 -0.8752
vn 0.6669 -0.0890 -0.7398
vn 0.3917 0.1466 -0.9084
vn 0.6387 0.0001 -0.7694
vn 0.4227 -0.0902 -0.9018
vn 0.2600 -0.2281 -0.9383
vn 0.4062 -0.4176 -0.8128
vn -0.0281 -0.3504 -0.9362
vn 0.8817 0.2119 0.4216
vn 0.8600 -0.0299 0.5094
vn 0.9947 0.0113 0.1019
vn 0.9873 -0.1225 -0.1008
vn 0.9446 -0.2480 0.2148
vn 0.8999 -0.3539 -0.2546
vn -0.6911 0.1305 0.7109
vn -0.3783 0.1580 0.9121
vn -0.5379 0.3636 0.7606
vn 0.0298 0.3580 0.9332
vn -0.4408 0.4291 0.7884
vn -0.3048 0.1854 0.9342
vn -0.3958 0.0111 0.9182
vn -0.6605 0.0511 0.7491
vn -0.6082 -0.1572 0.7780
vn -0.8745 0.0082 -0.4850
vn -0.9940 0.0835 -0.0701
vn -0.9042 0.2713 -0.3298
vn -0.8773 0.3918 0.2772
vn -0.9089 0.3658 -0.2002
vn -0.9864 0.1530 0.0599
vn -0.9961 -0.0729 -0.0503
vn -0.9041 -0.0611 -0.4229
vn -0.9144 -0.2423 -0.3243
vn 0.2212 -0.1028 -0.9698
vn -0.1963 -0.0879 -0.9766
vn -0.0646 0.1056 -0.9923
vn -0.5632 0.1734 -0.8079
vn -0.1940 0.1441 -0.9703
vn -0.4188 -0.0279 -0.9077
vn 0.9404 0.2766 -0.1981
vn 0.9228 0.2762 0.2688
vn 0.9964 0.0838 0.0117
vn 0.9841 0.0370 -0.1734
vn 0.8451 0.0119 -0.5345
vn 0.9014 0.1999 -0.3842
vn 0.4400 0.1923 -0.8771
vn 0.7571 0.2673 -0.5961
vn 0.7226 0.0540 -0.6891
vn 0.8251 -0.0803 -0.5592
vn 0.9767 -0.0998 -0.1898
vn 0.8851 -0.3058 -0.3508
vn 0.4967 0.1930 0.8462
vn 0.7751 -0.0215 0.6314
vn 0.7919 0.2298 0.5658
vn 0.7376 -0.0475 0.6736
vn 0.4711 0.1750 0.8646
vn 0.3663 -0.0971 0.9254
vn -0.0555 0.6683 0.7418
vn -0.4720 0.4966 0.7284
vn 0.0492 0.4158 0.9081
vn -0.7811 0.5061 -0.3658
vn -0.6538 0.7278 0.2072
vn -0.3998 0.7073 -0.5830
vn 0.4380 0.8971 0.0581
vn -0.1157 0.8591 -0.4986
vn -0.4918 0.8368 0.2406
vn -0.6280 0.7340 0.2585
vn -0.8674 0.4488 -0.2151
vn -0.8554 0.4341 0.2827
vn -0.2796 0.5724 -0.7708
vn -0.1573 0.2595 -0.9528
vn -0.5421 0.2995 -0.7852
vn 0.7771 0.6288 0.0264
vn 0.8269 0.4596 0.3241
vn 0.8945 0.4027 -0.1941
vn 0.7442 0.4640 -0.4805
vn 0.3507 0.6326 -0.6905
vn 0.6353 0.7334 -0.2420
vn 0.3164 0.5769 -0.7530
vn 0.7060 0.4063 -0.5801
vn 0.3851 0.2811 -0.8790
vn 0.0675 0.6930 0.7178
vn 0.1604 0.4355 0.8858
vn 0.5669 0.4850 0.6659
vn 0.5763 0.5110 0.6378
vn 0.6049 0.7387 0.2973
vn 0.0439 0.6623 0.7479
vn -0.9307 -0.2753 0.2408
vn -0.9472 -0.2987 -0.1163
vn -0.8659 -0.4888 0.1065
vn -0.7829 -0.5991 0.1677
vn -0.2743 -0.6752 0.6848
vn -0.8044 -0.3359 0.4901
vn -0.0002 -0.2224 0.9749
vn -0.4368 -0.2258 0.8708
vn -0.0166 -0.5426 0.8398
vn -0.5819 -0.4043 -0.7056
vn -0.2183 -0.3369 -0.9159
vn -0.2013 -0.5646 -0.8005
vn -0.2079 -0.6792 -0.7039
vn -0.7441 -0.6342 -0.2101
vn -0.6974 -0.4124 -0.5862
vn -0.0539 -0.9417 -0.3322
vn -0.0492 -0.9288 0.3673
vn -0.5928 -0.8013 -0.0802
vn 0.6490 -0.7445 -0.1566
vn 0.0666 -0.6933 -0.7175
vn 0.6964 -0.4545 -0.5554
vn 0.0400 -0.3492 -0.9362
vn 0.3405 -0.3904 -0.8554
vn 0.0368 -0.5449 -0.8377
vn 0.5442 -0.8189 0.1825
vn 0.1104 -0.8642 0.4909
vn -0.0448 -0.9407 -0.3364
vn 0.7833 -0.3717 0.4982
vn 0.3067 -0.3082 0.9005
vn 0.4268 -0.6235 0.6550
vn 0.4455 -0.6156 0.6500
vn 0.7216 -0.6002 0.3451
vn 0.7247 -0.4355 0.5341
vn 0.9128 -0.3068 -0.2698
vn 0.9139 -0.3023 0.2709
vn 0.8319 -0.5527 0.0503
vn -0.2611 -0.0331 0.9647
vn -0.3552 -0.1806 0.9172
vn -0.0670 -0.1722 0.9828
vn 0.1764 -0.1023 0.9790
vn 0.2087 0.1946 0.9584
vn -0.2005 0.0518 0.9783
vn -0.9900 -0.1120 0.0863
vn -0.9644 -0.2635 -0.0233
vn -0.9419 -0.2464 0.2281
vn -0.8544 -0.1783 0.4882
vn -0.8571 0.0314 0.5142
vn -0.9854 -0.0454 0.1643
vn -0.8676 0.3361 0.3665
vn -0.9850 0.0966 0.1433
vn -0.8343 0.1150 0.5392
vn -0.7471 -0.3004 -0.5929
vn -0.7126 -0.0922 -0.6954
vn -0.3952 -0.1820 -0.9004
vn -0.5595 0.1815 -0.8087
vn -0.4155 -0.0279 -0.9092
vn -0.7185 -0.0144 -0.6954
vn 0.5428 -0.3343 -0.7704
vn 0.4046 -0.1803 -0.8965
vn 0.6980 -0.1035 -0.7086
vn 0.4019 0.1510 -0.9032
vn 0.6531 0.0002 -0.7573
vn 0.3708 -0.0753 -0.9257
vn 0.3270 -0.2348 -0.9154
vn 0.3399 -0.3742 -0.8628
vn -0.0093 -0.3478 -0.9375
vn 0.8929 0.1893 0.4086
vn 0.9068 -0.0628 0.4169
vn 0.9949 0.0460 0.0897
vn 0.9934 -0.1112 -0.0263
vn 0.9344 -0.2543 0.2495
vn 0.9458 -0.2898 -0.1467
vn -0.6594 0.1073 0.7441
vn -0.3745 0.1571 0.9138
vn -0.5977 0.3424 0.7249
vn 0.0336 0.3985 0.9165
vn -0.3543 0.3891 0.8504
vn -0.2576 0.1831 0.9487
vn -0.3315 0.0289 0.9430
vn -0.6869 0.0284 0.7262
vn -0.5362 -0.1738 0.8260
vn -0.8989 -0.0133 -0.4380
vn -0.9965 0.0784 -0.0282
vn -0.8599 0.2230 -0.4591
vn -0.9093 0.3631 0.2033
vn -0.9217 0.3544 -0.1574
vn -0.9870 0.1523 0.0522
vn -0.9978 -0.0627 -0.0209
vn -0.8891 -0.0878 -0.4493
vn -0.9467 -0.2523 -0.2001
vn 0.1975 -0.1254 -0.9723
vn -0.3762 -0.1388 -0.9161
vn -0.0688 0.1590 -0.9849
vn -0.4884 0.1454 -0.8604
vn -0.2114 0.1697 -0.9626
vn -0.3456 -0.0258 -0.9380
vn 0.9397 0.2828 -0.1922
vn 0.9191 0.2784 0.2787
vn 0.9964 0.0847 -0.0010
vn 0.9781 0.0031 -0.2081
vn 0.8193 -0.0051 -0.5733
vn 0.8982 0.2139 -0.3840
vn 0.5229 0.1861 -0.8318
vn 0.7884 0.2369 -0.5677
vn 0.6935 0.0462 -0.7189
vn 0.8332 -0.0719 -0.5483
vn 0.9765 -0.1002 -0.1909
vn 0.8459 -0.2865 -0.4498
vn 0.4119 0.1925 0.8907
vn 0.7441 0.0521 0.6661
vn 0.7116 0.2766 0.6458
vn 0.8343 -0.0649 0.5475
vn 0.5021 0.1163 0.8569
vn 0.3869 -0.1118 0.9153
vn -0.2959 0.6637 0.6870
vn -0.4389 0.4356 0.7859
vn -0.0367 0.4691 0.8824
vn -0.8243 0.4244 -0.3747
vn -0.6895 0.7241 -0.0126
vn -0.3976 0.7140 -0.5763
vn 0.4572 0.8881 -0.0467
vn -0.1481 0.7392 -0.6570
vn -0.2652 0.8813 0.3910
vn -0.6264 0.7643 0.1533
vn -0.8652 0.4871 -0.1193
vn -0.7786 0.5099 0.3657
vn -0.1549 0.5375 -0.8289
vn -0.0976 0.2120 -0.9724
vn -0.6184 0.2689 -0.7385
vn 0.7328 0.6802 0.0198
vn 0.8633 0.4206 0.2790
vn 0.8768 0.4266 -0.2221
vn 0.7484 0.4559 -0.4817
vn 0.3543 0.6125 -0.7066
vn 0.6984 0.6844 -0.2096
vn 0.2759 0.6268 -0.7287
vn 0.6864 0.4096 -0.6009
vn 0.2757 0.3256 -0.9044
vn 0.1647 0.6243 0.7636
vn 0.3098 0.4062 0.8597
vn 0.5699 0.5058 0.6476
vn 0.5620 0.5368 0.6293
vn 0.5271 0.7926 0.3067
vn 0.0444 0.6673 0.7434
vn -0.0000 -1.0000 0.0000
vn 0.0000 1.0000 0.0000
vn -0.5083 -0.0286 -0.8607
vn -0.5051 0.1159 -0.8552
vn 0.4909 0.0454 -0.8700
vn 0.4910 0.0426 -0.8701
vn 0.9929 0.1187 -0.0098
vn 0.9995 -0.0314 -0.0099
vn 0.5049 0.1187 0.8550
vn 0.5083 -0.0314 0.8606
vn -0.4909 0.0454 0.8700
vn -0.4910 0.0426 0.8701
vn -0.9932 0.1159 0.0098
vn -0.9995 -0.0286 0.0099
s off
f 30/1/1 71/2/1 2/3/1
f 3/4/2 99/5/2 30/1/2
f 13/6/3 99/5/3 28/7/3
f 27/8/4 71/9/4 13/10/4
f 1/11/5 100/12/5 27/8/5
f 2/13/6 100/12/6 29/14/6
f 32/15/7 31/16/7 6/17/7
f 29/18/8 32/15/8 2/19/8
f 1/11/9 101/20/9 29/18/9
f 35/21/10 72/22/10 3/4/10
f 4/23/11 102/24/11 35/21/11
f 72/22/12 34/25/12 14/26/12
f 73/27/13 72/22/13 14/26/13
f 13/6/14 103/28/14 73/27/14
f 3/4/15 103/28/15 28/7/15
f 33/29/16 73/30/16 14/31/16
f 27/8/17 33/29/17 1/11/17
f 13/10/18 104/32/18 27/8/18
f 15/33/19 105/34/19 36/35/19
f 75/36/20 74/37/20 14/31/20
f 5/38/21 105/34/21 75/36/21
f 38/39/22 34/25/22 4/23/22
f 75/40/23 38/39/23 5/41/23
f 14/26/24 106/42/24 75/40/24
f 15/33/25 107/43/25 74/37/25
f 33/29/26 37/44/26 1/11/26
f 14/31/27 107/43/27 33/29/27
f 39/45/28 76/46/28 16/47/28
f 6/17/29 108/48/29 39/45/29
f 76/46/30 31/16/30 1/11/30
f 37/44/31 76/46/31 1/11/31
f 15/33/32 109/49/32 37/44/32
f 76/46/33 77/50/33 16/47/33
f 5/38/34 110/51/34 36/35/34
f 77/50/35 40/52/35 16/47/35
f 15/33/36 110/51/36 77/50/36
f 17/53/37 111/54/37 78/55/37
f 32/56/38 42/57/38 2/58/38
f 6/59/39 111/54/39 32/56/39
f 41/60/40 78/55/40 6/59/40
f 11/61/41 112/62/41 41/60/41
f 78/55/42 43/63/42 17/53/42
f 19/64/43 113/65/43 79/66/43
f 30/67/44 47/68/44 3/69/44
f 79/66/45 30/67/45 2/58/45
f 2/58/46 114/70/46 79/66/46
f 18/71/47 114/70/47 44/72/47
f 79/66/48 80/73/48 19/64/48
f 7/74/49 115/75/49 45/76/49
f 80/73/50 46/77/50 19/64/50
f 18/71/51 115/75/51 80/73/51
f 3/4/52 116/78/52 35/21/52
f 20/79/53 116/78/53 49/80/53
f 35/21/54 81/81/54 4/23/54
f 50/82/55 48/83/55 8/84/55
f 81/81/56 50/82/56 4/23/56
f 20/79/57 117/85/57 81/81/57
f 5/86/58 118/87/58 53/88/58
f 83/89/59 82/90/59 21/91/59
f 22/92/60 118/87/60 83/89/60
f 9/93/61 119/94/61 51/95/61
f 83/89/62 54/96/62 22/92/62
f 21/91/63 119/94/63 83/89/63
f 21/97/64 120/98/64 52/99/64
f 38/39/65 82/100/65 5/41/65
f 52/99/66 38/39/66 4/23/66
f 57/101/67 56/102/67 10/103/67
f 16/104/68 121/105/68 57/101/68
f 23/106/69 121/105/69 84/107/69
f 23/106/70 122/108/70 55/109/70
f 40/110/71 84/107/71 16/104/71
f 55/109/72 40/110/72 5/86/72
f 18/71/73 123/111/73 45/76/73
f 86/112/74 85/113/74 17/53/74
f 7/74/75 123/111/75 86/112/75
f 11/61/76 124/114/76 43/63/76
f 86/112/77 58/115/77 7/74/77
f 17/53/78 124/114/78 86/112/78
f 85/113/79 42/57/79 17/53/79
f 18/71/80 125/116/80 85/113/80
f 2/58/81 125/116/81 44/72/81
f 20/79/82 126/117/82 48/83/82
f 88/118/83 87/119/83 19/120/83
f 8/84/84 126/117/84 88/118/84
f 59/121/85 46/122/85 7/123/85
f 88/124/86 59/121/86 8/125/86
f 19/126/87 127/127/87 88/124/87
f 87/119/88 47/128/88 19/120/88
f 20/79/89 128/129/89 87/119/89
f 3/4/90 128/129/90 49/80/90
f 21/97/91 129/130/91 51/131/91
f 89/132/92 52/99/92 4/23/92
f 51/131/93 89/132/93 9/133/93
f 60/134/94 50/82/94 8/84/94
f 9/133/95 130/135/95 60/134/95
f 4/23/96 130/135/96 89/132/96
f 24/136/97 131/137/97 90/138/97
f 56/102/98 62/139/98 10/103/98
f 23/106/99 131/137/99 56/102/99
f 23/106/100 132/140/100 90/138/100
f 92/141/101 91/142/101 22/92/101
f 90/138/102 92/141/102 24/136/102
f 61/143/103 54/96/103 9/93/103
f 24/136/104 133/144/104 61/143/104
f 22/92/105 133/144/105 92/141/105
f 22/92/106 134/145/106 53/88/106
f 55/109/107 91/142/107 23/106/107
f 5/86/108 134/145/108 55/109/108
f 93/146/109 63/147/109 11/148/109
f 57/101/110 93/146/110 16/104/110
f 10/103/111 135/149/111 57/101/111
f 93/150/112 39/45/112 16/47/112
f 41/151/113 93/150/113 11/152/113
f 6/17/114 136/153/114 41/151/114
f 25/154/115 137/155/115 64/156/115
f 7/123/116 137/155/116 66/157/116
f 64/156/117 58/158/117 11/159/117
f 94/160/118 67/161/118 8/125/118
f 95/162/119 94/160/119 25/154/119
f 26/163/120 138/164/120 95/162/120
f 12/165/121 139/166/121 65/167/121
f 95/162/122 68/168/122 26/163/122
f 25/154/123 139/166/123 95/162/123
f 25/154/124 140/169/124 66/157/124
f 59/121/125 94/160/125 8/125/125
f 7/123/126 140/169/126 59/121/126
f 26/163/127 141/170/127 67/161/127
f 60/171/128 69/172/128 9/173/128
f 67/161/129 60/171/129 8/125/129
f 70/174/130 96/175/130 12/176/130
f 10/103/131 142/177/131 70/174/131
f 24/136/132 142/177/132 62/139/132
f 97/178/133 96/175/133 24/136/133
f 26/179/134 143/180/134 97/178/134
f 12/176/135 143/180/135 68/181/135
f 97/178/136 69/182/136 26/179/136
f 61/143/137 97/178/137 24/136/137
f 9/93/138 144/183/138 61/143/138
f 64/156/139 98/184/139 25/154/139
f 11/159/140 145/185/140 64/156/140
f 10/186/141 145/185/141 63/187/141
f 70/188/142 98/184/142 10/186/142
f 12/165/143 146/189/143 70/188/143
f 25/154/144 146/189/144 65/167/144
f 30/1/145 99/5/145 71/2/145
f 3/4/146 28/7/146 99/5/146
f 13/6/147 71/2/147 99/5/147
f 27/8/148 100/12/148 71/9/148
f 1/11/149 29/14/149 100/12/149
f 2/13/150 71/9/150 100/12/150
f 32/15/151 101/20/151 31/16/151
f 29/18/152 101/20/152 32/15/152
f 1/11/153 31/16/153 101/20/153
f 35/21/154 102/24/154 72/22/154
f 4/23/155 34/25/155 102/24/155
f 72/22/156 102/24/156 34/25/156
f 73/27/157 103/28/157 72/22/157
f 13/6/158 28/7/158 103/28/158
f 3/4/159 72/22/159 103/28/159
f 33/29/160 104/32/160 73/30/160
f 27/8/161 104/32/161 33/29/161
f 13/10/162 73/30/162 104/32/162
f 15/33/163 74/37/163 105/34/163
f 75/36/164 105/34/164 74/37/164
f 5/38/165 36/35/165 105/34/165
f 38/39/166 106/42/166 34/25/166
f 75/40/167 106/42/167 38/39/167
f 14/26/168 34/25/168 106/42/168
f 15/33/169 37/44/169 107/43/169
f 33/29/170 107/43/170 37/44/170
f 14/31/171 74/37/171 107/43/171
f 39/45/172 108/48/172 76/46/172
f 6/17/173 31/16/173 108/48/173
f 76/46/174 108/48/174 31/16/174
f 37/44/175 109/49/175 76/46/175
f 15/33/176 77/50/176 109/49/176
f 76/46/177 109/49/177 77/50/177
f 5/38/178 40/52/178 110/51/178
f 77/50/179 110/51/179 40/52/179
f 15/33/180 36/35/180 110/51/180
f 17/53/181 42/57/181 111/54/181
f 32/56/182 111/54/182 42/57/182
f 6/59/183 78/55/183 111/54/183
f 41/60/184 112/62/184 78/55/184
f 11/61/185 43/63/185 112/62/185
f 78/55/186 112/62/186 43/63/186
f 19/64/187 47/68/187 113/65/187
f 30/67/188 113/65/188 47/68/188
f 79/66/189 113/65/189 30/67/189
f 2/58/190 44/72/190 114/70/190
f 18/71/191 80/73/191 114/70/191
f 79/66/192 114/70/192 80/73/192
f 7/74/193 46/77/193 115/75/193
f 80/73/194 115/75/194 46/77/194
f 18/71/195 45/76/195 115/75/195
f 3/4/196 49/80/196 116/78/196
f 20/79/197 81/81/197 116/78/197
f 35/21/198 116/78/198 81/81/198
f 50/82/199 117/85/199 48/83/199
f 81/81/200 117/85/200 50/82/200
f 20/79/201 48/83/201 117/85/201
f 5/86/202 82/90/202 118/87/202
f 83/89/203 118/87/203 82/90/203
f 22/92/204 53/88/204 118/87/204
f 9/93/205 54/96/205 119/94/205
f 83/89/206 119/94/206 54/96/206
f 21/91/207 51/95/207 119/94/207
f 21/97/208 82/100/208 120/98/208
f 38/39/209 120/98/209 82/100/209
f 52/99/210 120/98/210 38/39/210
f 57/101/211 121/105/211 56/102/211
f 16/104/212 84/107/212 121/105/212
f 23/106/213 56/102/213 121/105/213
f 23/106/214 84/107/214 122/108/214
f 40/110/215 122/108/215 84/107/215
f 55/109/216 122/108/216 40/110/216
f 18/71/217 85/113/217 123/111/217
f 86/112/218 123/111/218 85/113/218
f 7/74/219 45/76/219 123/111/219
f 11/61/220 58/115/220 124/114/220
f 86/112/221 124/114/221 58/115/221
f 17/53/222 43/63/222 124/114/222
f 85/113/223 125/116/223 42/57/223
f 18/71/224 44/72/224 125/116/224
f 2/58/225 42/57/225 125/116/225
f 20/79/226 87/119/226 126/117/226
f 88/118/227 126/117/227 87/119/227
f 8/84/228 48/83/228 126/117/228
f 59/121/229 127/127/229 46/122/229
f 88/124/230 127/127/230 59/121/230
f 19/126/231 46/122/231 127/127/231
f 87/119/232 128/129/232 47/128/232
f 20/79/233 49/80/233 128/129/233
f 3/4/234 47/128/234 128/129/234
f 21/97/235 52/99/235 129/130/235
f 89/132/236 129/130/236 52/99/236
f 51/131/237 129/130/237 89/132/237
f 60/134/238 130/135/238 50/82/238
f 9/133/239 89/132/239 130/135/239
f 4/23/240 50/82/240 130/135/240
f 24/136/241 62/139/241 131/137/241
f 56/102/242 131/137/242 62/139/242
f 23/106/243 90/138/243 131/137/243
f 23/106/244 91/142/244 132/140/244
f 92/141/245 132/140/245 91/142/245
f 90/138/246 132/140/246 92/141/246
f 61/143/247 133/144/247 54/96/247
f 24/136/248 92/141/248 133/144/248
f 22/92/249 54/96/249 133/144/249
f 22/92/250 91/142/250 134/145/250
f 55/109/251 134/145/251 91/142/251
f 5/86/252 53/88/252 134/145/252
f 93/146/253 135/149/253 63/147/253
f 57/101/254 135/149/254 93/146/254
f 10/103/255 63/147/255 135/149/255
f 93/150/256 136/153/256 39/45/256
f 41/151/257 136/153/257 93/150/257
f 6/17/258 39/45/258 136/153/258
f 25/154/259 66/157/259 137/155/259
f 7/123/260 58/158/260 137/155/260
f 64/156/261 137/155/261 58/158/261
f 94/160/262 138/164/262 67/161/262
f 95/162/263 138/164/263 94/160/263
f 26/163/264 67/161/264 138/164/264
f 12/165/265 68/168/265 139/166/265
f 95/162/266 139/166/266 68/168/266
f 25/154/267 65/167/267 139/166/267
f 25/154/268 94/160/268 140/169/268
f 59/121/269 140/169/269 94/160/269
f 7/123/270 66/157/270 140/169/270
f 26/163/271 69/172/271 141/170/271
f 60/171/272 141/170/272 69/172/272
f 67/161/273 141/170/273 60/171/273
f 70/174/274 142/177/274 96/175/274
f 10/103/275 62/139/275 142/177/275
f 24/136/276 96/175/276 142/177/276
f 97/178/277 143/180/277 96/175/277
f 26/179/278 68/181/278 143/180/278
f 12/176/279 96/175/279 143/180/279
f 97/178/280 144/183/280 69/182/280
f 61/143/281 144/183/281 97/178/281
f 9/93/282 69/182/282 144/183/282
f 64/156/283 145/185/283 98/184/283
f 11/159/284 63/187/284 145/185/284
f 10/186/285 98/184/285 145/185/285
f 70/188/286 146/189/286 98/184/286
f 12/165/287 65/167/287 146/189/287
f 25/154/288 98/184/288 146/189/288
f 159/190/289 147/191/289 148/192/289
f 160/193/290 154/194/290 153/195/290
f 159/190/289 148/192/289 149/196/289
f 160/193/290 155/197/290 154/194/290
f 159/190/289 149/196/289 150/198/289
f 160/193/290 156/199/290 155/197/290
f 159/190/289 150/198/289 151/200/289
f 160/193/290 157/201/290 156/199/290
f 159/190/289 151/200/289 152/202/289
f 160/193/290 158/203/290 157/201/290
f 152/202/289 147/191/289 159/190/289
f 160/193/290 153/195/290 158/203/290
f 147/204/291 161/205/291 148/206/291
f 162/207/292 154/208/292 161/205/292
f 148/206/293 163/209/293 149/210/293
f 154/208/294 163/209/294 161/205/294
f 163/211/295 150/212/295 149/213/295
f 155/214/296 164/215/296 163/211/296
f 164/216/297 151/217/297 150/218/297
f 156/199/298 165/219/298 164/216/298
f 165/220/299 152/221/299 151/222/299
f 165/220/300 158/223/300 166/224/300
f 153/225/301 166/224/301 158/223/301
f 162/226/302 152/221/302 166/224/302
f 147/204/291 162/207/291 161/205/291
f 162/207/292 153/227/292 154/208/292
f 148/206/293 161/205/293 163/209/293
f 154/208/294 155/228/294 163/209/294
f 163/211/295 164/215/295 150/212/295
f 155/214/296 156/229/296 164/215/296
f 164/216/297 165/219/297 151/217/297
f 156/199/298 157/201/298 165/219/298
f 165/220/299 166/224/299 152/221/299
f 165/220/300 157/230/300 158/223/300
f 153/225/301 162/226/301 166/224/301
f 162/226/302 147/231/302 152/221/302
