456,338
456,352
456,370
452,380
446,406
448,422
474,454
486,466
498,474
518,482
526,492
542,508
548,522
558,538
566,554
574,576
576,594
580,614
580,636
600,650
614,664
630,674
648,676
652,668
656,644
654,626
636,610
626,616
636,634
638,648
616,634
606,620
600,598
604,582
620,582
620,600
634,594
634,584
620,560
612,538
604,516
600,488
598,470
598,442
598,426
590,402
574,384
562,370
540,352
528,338
504,338
490,340
478,352
480,372
480,390
476,406
486,420
502,432
508,444
516,454
528,466
534,476
548,484
558,496
568,510
574,526
580,546
598,562
594,540
590,524
582,502
580,486
584,462
580,440
570,428
552,450
570,472
568,452
540,432
544,452
534,442
522,428
518,420
504,410
496,400
496,384
502,368
510,364
524,360
532,372
532,382
518,380
518,388
526,404
542,408
544,396
558,396
574,408
556,414
556,432
546,378
464,416
472,426
484,440
496,452
466,396
468,380
660,684
598,758
576,750
552,740
522,724
510,698
496,660
496,624
488,592
470,570
360,394
358,408
358,424
360,434
366,446
370,456
374,466
378,472
384,482
390,492
398,502
406,508
420,522
428,528
440,536
456,544
464,554
482,570
462,562
442,554
428,540
414,526
398,518
398,510
380,492
380,486
368,466
362,458
358,444
352,428
352,412
356,402
472,584
472,562
484,566
488,590
480,600
484,618
494,624
494,606
494,582
492,634
494,642
494,656
500,680
502,698
510,714
528,728
536,738
542,730
530,712
524,708
550,746
568,754
566,740
554,736
546,724
580,756
592,762
592,752
614,762
624,764
630,760
646,382
662,382
672,380
694,380
708,380
728,378
752,376
766,378
648,400
680,402
662,396
666,412
660,428
654,440
660,458
662,468
664,482
670,496
670,506
678,522
684,532
692,544
694,544
698,532
696,524
694,516
690,506
686,494
684,480
682,466
678,456
672,440
688,426
700,414
716,410
734,410
748,410
758,408
748,396
734,392
718,392
700,392
760,396
772,400
776,416
774,430
768,442
766,460
768,476
768,488
770,508
770,524
770,540
764,550
750,558
736,568
740,580
744,596
742,612
740,626
752,642
760,658
770,660
770,642
760,630
758,624
756,612
758,594
764,582
772,562
762,560
756,576
696,564
708,586
718,602
720,624
726,608
726,592
718,580
710,564
704,572
720,558
734,552
744,544
756,536
750,522
750,512
750,500
748,480
748,460
750,448
754,440
758,426
740,426
732,432
718,436
710,438
702,442
700,454
704,466
704,476
704,492
710,506
714,516
716,528
720,534
728,530
732,524
726,514
726,504
726,492
724,476
724,464
734,450
732,466
732,480
734,644
720,652
720,676
726,690
724,712
716,724
708,736
702,760
720,762
730,756
726,746
726,740
742,732
744,724
744,716
746,706
746,694
744,684
740,668
746,668
758,672
764,684
762,696
758,706
764,722
764,736
750,746
752,760
748,774
734,776
720,778
706,778
692,780
686,782
696,752
698,730
708,708
710,700
710,672
710,658
708,634
702,620
696,602
692,592
662,778
658,784
680,768
678,764
590,578
584,564
554,468
580,420
602,454
606,492
616,526
628,548
638,568
652,596
596,632
584,654
364,170
374,154
384,164
408,162
422,156
420,148
400,150
380,136
378,116
404,110
400,124
418,124
432,112
160,140
150,140
126,148
112,160
114,186
126,200
134,176
146,160
140,196
150,228
138,250
144,278
138,302
156,318
174,336
196,348
212,366
236,378
278,368
270,352
246,336
260,372
236,356
226,348
230,314
216,320
206,342
188,316
176,298
206,288
200,300
182,278
168,290
156,290
158,266
156,242
174,242
198,260
220,272
222,284
230,298
304,440
316,424
324,408
310,468
316,488
316,508
324,540
324,554
334,572
354,578
368,584
406,596
380,592
396,594
420,610
428,618
436,628
442,606
436,600
420,586
406,576
390,566
380,554
366,540
356,524
350,510
344,498
342,484
332,468
328,450
328,434
320,454
328,490
332,514
324,524
344,542
348,560
366,568
356,550
232,84
272,68
300,56
330,66
230,40
162,32
102,28
74,60
42,98
104,74
54,36
40,72
18,124
28,160
32,196
16,224
48,248
54,290
18,288
20,330
48,322
38,370
22,398
22,64
20,24
46,8
70,20
140,62
138,18
118,42
184,58
202,80
200,32
176,16
230,14
268,30
308,20
332,36
352,54
390,42
444,44
452,58
414,56
374,32
354,18
406,20
436,24
468,26
508,24
490,42
484,18
302,84
268,90
240,72
256,52